   install dependencies:
     $ cd nodejs && npm install

   run the app:
     $ node app


    updated package.json add new dependencies

        "ejs": "*",
        "stylus" : ">= 0.0.1",
        "mongodb" : ">= 0.9.6-7",
         "monk" : ">= 0.7.1"
